[
    {
        "albumName" : "Güzel Ahlak - 1",
        "albumImage" : "guzel_ahlak_1",
        "actionId" : 10,
        "musicItems" : [
            {
                "songName" : "Edep",
                "songArtist" : "Emre IHLAMUR",
                "songComposerAuthor" : "Neslihan Nur TÜRK",
                "songArranger" : "Fatih IHLAMUR",
            },
            {
                "songName" : "Fedâkârlık",
                "songArtist" : "Emre IHLAMUR",
                "songComposerAuthor" : "Neslihan Nur TÜRK",
                "songArranger" : "Fatih IHLAMUR",
            },
            {
                "songName" : "Gel Hadi Gel Bak",
                "songArtist" : "Merve IHLAMUR",
                "songComposerAuthor" : "Neslihan Nur TÜRK",
                "songArranger" : "Fatih IHLAMUR",
            },
            {
                "songName" : "Himmet",
                "songArtist" : "Emre IHLAMUR",
                "songComposerAuthor" : "Neslihan Nur TÜRK",
                "songArranger" : "Fatih IHLAMUR",
            },
            {
                "songName" : "İşittim Gördüm Bildim",
                "songArtist" : "Emre IHLAMUR",
                "songComposerAuthor" : "Neslihan Nur TÜRK",
                "songArranger" : "Fatih IHLAMUR",
            },
            {
                "songName" : "Sabır",
                "songArtist" : "Emre IHLAMUR",
                "songComposerAuthor" : "Neslihan Nur TÜRK",
                "songArranger" : "Fatih IHLAMUR",
            },
            {
                "songName" : "Sevgi",
                "songArtist" : "Emre IHLAMUR",
                "songComposerAuthor" : "Neslihan Nur TÜRK",
                "songArranger" : "Fatih IHLAMUR",
            },
            {
                "songName" : "Tutumluluk",
                "songArtist" : "Merve IHLAMUR",
                "songComposerAuthor" : "Neslihan Nur TÜRK",
                "songArranger" : "Fatih IHLAMUR",
            },
            {
                "songName" : "Tuzsuz Balık",
                "songArtist" : "Merve IHLAMUR",
                "songComposerAuthor" : "Neslihan Nur TÜRK",
                "songArranger" : "Fatih IHLAMUR",
            },
            {
                "songName" : "Yardımlaşalım",
                "songArtist" : "Emre IHLAMUR",
                "songComposerAuthor" : "Neslihan Nur TÜRK",
                "songArranger" : "Fatih IHLAMUR",
            },
            {
                "songName" : "Edep Enstrümantal",
                "songArtist" : "ENSTRÜMANTAL",
                "songComposerAuthor" : "ENSTRÜMANTAL",
                "songArranger" : "Fatih IHLAMUR",
            },
            {
                "songName" : "Fedâkârlık Enstrümantal",
                "songArtist" : "ENSTRÜMANTAL",
                "songComposerAuthor" : "ENSTRÜMANTAL",
                "songArranger" : "Fatih IHLAMUR",
            },
            {
                "songName" : "Gel Hadi Gel Bak Enstrümantal",
                "songArtist" : "ENSTRÜMANTAL",
                "songComposerAuthor" : "ENSTRÜMANTAL",
                "songArranger" : "Fatih IHLAMUR",
            },
            {
                "songName" : "Himmet Enstrümantal",
                "songArtist" : "ENSTRÜMANTAL",
                "songComposerAuthor" : "ENSTRÜMANTAL",
                "songArranger" : "Fatih IHLAMUR",
            },
            {
                "songName" : "İşittim Gördüm Bildim Enstrümantal",
                "songArtist" : "ENSTRÜMANTAL",
                "songComposerAuthor" : "ENSTRÜMANTAL",
                "songArranger" : "Fatih IHLAMUR",
            },
            {
                "songName" : "Sabır Enstrümantal",
                "songArtist" : "ENSTRÜMANTAL",
                "songComposerAuthor" : "ENSTRÜMANTAL",
                "songArranger" : "Fatih IHLAMUR",
            },
            {
                "songName" : "Sevgi Enstrümantal",
                "songArtist" : "ENSTRÜMANTAL",
                "songComposerAuthor" : "ENSTRÜMANTAL",
                "songArranger" : "Fatih IHLAMUR",
            },
            {
                "songName" : "Tutumluluk Enstrümantal",
                "songArtist" : "ENSTRÜMANTAL",
                "songComposerAuthor" : "ENSTRÜMANTAL",
                "songArranger" : "Fatih IHLAMUR",
            },
            {
                "songName" : "Tuzsuz Balık Enstrümantal",
                "songArtist" : "ENSTRÜMANTAL",
                "songComposerAuthor" : "ENSTRÜMANTAL",
                "songArranger" : "Fatih IHLAMUR",
            },
            {
                "songName" : "Yardımlaşalım Enstrümantal",
                "songArtist" : "ENSTRÜMANTAL",
                "songComposerAuthor" : "ENSTRÜMANTAL",
                "songArranger" : "Fatih IHLAMUR",
            },
        ]
    },
    {
        "albumName" : "Güzel Ahlak - 2",
        "albumImage" : "guzel_ahlak_2",
        "actionId" : 20,
        "musicItems" : [
             {
                 "songName" : "Ağaçlar Kalem Olsa",
                 "songArtist" : "Merve IHLAMUR",
                 "songComposerAuthor" : "Neslihan Nur TÜRK",
                 "songArranger" : "Fatih IHLAMUR",
             },
             {
                 "songName" : "Edep Bir Tâc İmiş",
                 "songArtist" : "Merve IHLAMUR",
                 "songComposerAuthor" : "Neslihan Nur TÜRK",
                 "songArranger" : "Fatih IHLAMUR",
             },
             {
                 "songName" : "Emanet",
                 "songArtist" : "Emre IHLAMUR",
                 "songComposerAuthor" : "Neslihan Nur TÜRK",
                 "songArranger" : "Fatih IHLAMUR",
             },
             {
                 "songName" : "Kış",
                 "songArtist" : "Emre IHLAMUR",
                 "songComposerAuthor" : "Neslihan Nur TÜRK",
                 "songArranger" : "Fatih IHLAMUR",
             },
             {
                 "songName" : "Öfkene Hâkim Olmalısın",
                 "songArtist" : "Emre IHLAMUR",
                 "songComposerAuthor" : "Neslihan Nur TÜRK",
                 "songArranger" : "Fatih IHLAMUR",
             },
             {
                 "songName" : "Rıza",
                 "songArtist" : "Emre IHLAMUR",
                 "songComposerAuthor" : "Neslihan Nur TÜRK",
                 "songArranger" : "Fatih IHLAMUR",
             },
             {
                 "songName" : "Sabreden Derviş",
                 "songArtist" : "Merve IHLAMUR",
                 "songComposerAuthor" : "Neslihan Nur TÜRK",
                 "songArranger" : "Fatih IHLAMUR",
             },
             {
                 "songName" : "Ümit",
                 "songArtist" : "Emre IHLAMUR",
                 "songComposerAuthor" : "Neslihan Nur TÜRK",
                 "songArranger" : "Fatih IHLAMUR",
             },
             {
                 "songName" : "Yaz",
                 "songArtist" : "Merve IHLAMUR",
                 "songComposerAuthor" : "Neslihan Nur TÜRK",
                 "songArranger" : "Fatih IHLAMUR",
             },
             {
                 "songName" : "Zahmette Rahmet Var",
                 "songArtist" : "Merve IHLAMUR",
                 "songComposerAuthor" : "Neslihan Nur TÜRK",
                 "songArranger" : "Fatih IHLAMUR",
             },
             {
                 "songName" : "Ağaçlar Kalem Olsa Enstrümantal",
                 "songArtist" : "ENSTRÜMANTAL",
                 "songComposerAuthor" : "ENSTRÜMANTAL",
                 "songArranger" : "Fatih IHLAMUR",
             },
             {
                 "songName" : "Edep Bir Tâc İmiş Enstrümantal",
                 "songArtist" : "ENSTRÜMANTAL",
                 "songComposerAuthor" : "ENSTRÜMANTAL",
                 "songArranger" : "Fatih IHLAMUR",
             },
             {
                 "songName" : "Emanet Enstrümantal",
                 "songArtist" : "ENSTRÜMANTAL",
                 "songComposerAuthor" : "ENSTRÜMANTAL",
                 "songArranger" : "Fatih IHLAMUR",
             },
             {
                 "songName" : "Kış Enstrümantal",
                 "songArtist" : "ENSTRÜMANTAL",
                 "songComposerAuthor" : "ENSTRÜMANTAL",
                 "songArranger" : "Fatih IHLAMUR",
             },
             {
                 "songName" : "Öfkene Hâkim Olmalısın Enstrümantal",
                 "songArtist" : "ENSTRÜMANTAL",
                 "songComposerAuthor" : "ENSTRÜMANTAL",
                 "songArranger" : "Fatih IHLAMUR",
             },
             {
                 "songName" : "Rıza Enstrümantal",
                 "songArtist" : "ENSTRÜMANTAL",
                 "songComposerAuthor" : "ENSTRÜMANTAL",
                 "songArranger" : "Fatih IHLAMUR",
             },
             {
                 "songName" : "Sabreden Derviş Enstrümantal",
                 "songArtist" : "ENSTRÜMANTAL",
                 "songComposerAuthor" : "ENSTRÜMANTAL",
                 "songArranger" : "Fatih IHLAMUR",
             },
             {
                 "songName" : "Ümit Enstrümantal",
                 "songArtist" : "ENSTRÜMANTAL",
                 "songComposerAuthor" : "ENSTRÜMANTAL",
                 "songArranger" : "Fatih IHLAMUR",
             },
             {
                 "songName" : "Yaz Enstrümantal",
                 "songArtist" : "ENSTRÜMANTAL",
                 "songComposerAuthor" : "ENSTRÜMANTAL",
                 "songArranger" : "Fatih IHLAMUR",
             },
             {
                 "songName" : "Zahmette Rahmet Var Enstrümantal",
                 "songArtist" : "ENSTRÜMANTAL",
                 "songComposerAuthor" : "ENSTRÜMANTAL",
                 "songArranger" : "Fatih IHLAMUR",
             },
         ]
    },
    {
        "albumName" : "İbadet - 1",
        "albumImage" : "ibadet_1",
        "actionId" : 30,
        "musicItems" : [
            {
                "songName" : "Hac Umre",
                "songArtist" : "Merve IHLAMUR",
                "songComposerAuthor" : "Neslihan Nur TÜRK",
                "songArranger" : "Fatih IHLAMUR",
            },
            {
                "songName" : "Kelime-i Şehâdet",
                "songArtist" : "Merve IHLAMUR",
                "songComposerAuthor" : "Nurten YILDIZ",
                "songArranger" : "Fatih IHLAMUR",
            },
            {
                "songName" : "Namaz",
                "songArtist" : "Emre IHLAMUR",
                "songComposerAuthor" : "Neslihan Nur TÜRK",
                "songArranger" : "Fatih IHLAMUR",
            },
            {
                "songName" : "Nasihat",
                "songArtist" : "Merve IHLAMUR",
                "songComposerAuthor" : "Neslihan Nur TÜRK",
                "songArranger" : "Fatih IHLAMUR",
            },
            {
                "songName" : "Oruç",
                "songArtist" : "Merve IHLAMUR",
                "songComposerAuthor" : "Neslihan Nur TÜRK",
                "songArranger" : "Fatih IHLAMUR",
            },
            {
                "songName" : "Sadaka",
                "songArtist" : "Emre IHLAMUR",
                "songComposerAuthor" : "Nurten YILDIZ",
                "songArranger" : "Fatih IHLAMUR",
            },
            {
                "songName" : "Temizlik",
                "songArtist" : "Emre IHLAMUR",
                "songComposerAuthor" : "Neslihan Nur TÜRK",
                "songArranger" : "Fatih IHLAMUR",
            },
            {
                "songName" : "Hac Umre Enstrümantal",
                "songArtist" : "ENSTRÜMANTAL",
                "songComposerAuthor" : "ENSTRÜMANTAL",
                "songArranger" : "Fatih IHLAMUR",
            },
            {
                "songName" : "Kelime-i Şehâdet Enstrümantal",
                "songArtist" : "ENSTRÜMANTAL",
                "songComposerAuthor" : "ENSTRÜMANTAL",
                "songArranger" : "Fatih IHLAMUR",
            },
            {
                "songName" : "Namaz Enstrümantal",
                "songArtist" : "ENSTRÜMANTAL",
                "songComposerAuthor" : "ENSTRÜMANTAL",
                "songArranger" : "Fatih IHLAMUR",
            },
            {
                "songName" : "Nasihat Enstrümantal",
                "songArtist" : "ENSTRÜMANTAL",
                "songComposerAuthor" : "ENSTRÜMANTAL",
                "songArranger" : "Fatih IHLAMUR",
            },
            {
                "songName" : "Oruç Enstrümantal",
                "songArtist" : "ENSTRÜMANTAL",
                "songComposerAuthor" : "ENSTRÜMANTAL",
                "songArranger" : "Fatih IHLAMUR",
            },
            {
                "songName" : "Sadaka Enstrümantal",
                "songArtist" : "ENSTRÜMANTAL",
                "songComposerAuthor" : "ENSTRÜMANTAL",
                "songArranger" : "Fatih IHLAMUR",
            },
            {
                "songName" : "Temizlik Enstrümantal",
                "songArtist" : "ENSTRÜMANTAL",
                "songComposerAuthor" : "ENSTRÜMANTAL",
                "songArranger" : "Fatih IHLAMUR",
            },
        ]
    },
    {
        "albumName" : "İbadet - 2",
        "albumImage" : "ibadet_2",
        "actionId" : 40,
        "musicItems" : [
            {
                "songName" : "Bizim Köy",
                "songArtist" : "Merve IHLAMUR",
                "songComposerAuthor" : "Neslihan Nur TÜRK",
                "songArranger" : "Fatih IHLAMUR",
            },
            {
                "songName" : "Dua",
                "songArtist" : "Merve IHLAMUR",
                "songComposerAuthor" : "Neslihan Nur TÜRK",
                "songArranger" : "Fatih IHLAMUR",
            },
            {
                "songName" : "Tesbih",
                "songArtist" : "Emre IHLAMUR",
                "songComposerAuthor" : "Neslihan Nur TÜRK",
                "songArranger" : "Fatih IHLAMUR",
            },
            {
                "songName" : "Hikmet Yazar",
                "songArtist" : "Merve IHLAMUR",
                "songComposerAuthor" : "Neslihan Nur TÜRK",
                "songArranger" : "Fatih IHLAMUR",
            },
            {
                "songName" : "Tesettür",
                "songArtist" : "Merve IHLAMUR",
                "songComposerAuthor" : "Neslihan Nur TÜRK",
                "songArranger" : "Fatih IHLAMUR",
            },
            {
                "songName" : "Şemail",
                "songArtist" : "Merve IHLAMUR",
                "songComposerAuthor" : "Neslihan Nur TÜRK",
                "songArranger" : "Fatih IHLAMUR",
            },
            {
                "songName" : "Gülberenk",
                "songArtist" : "Merve IHLAMUR",
                "songComposerAuthor" : "Neslihan Nur TÜRK",
                "songArranger" : "Fatih IHLAMUR",
            },
            {
                "songName" : "Bizim Köy Enstrümantal",
                "songArtist" : "ENSTRÜMANTAL",
                "songComposerAuthor" : "ENSTRÜMANTAL",
                "songArranger" : "Fatih IHLAMUR",
            },
            {
                "songName" : "Dua Enstrümantal",
                "songArtist" : "ENSTRÜMANTAL",
                "songComposerAuthor" : "ENSTRÜMANTAL",
                "songArranger" : "Fatih IHLAMUR",
            },
            {
                "songName" : "Tesbih Enstrümantal",
                "songArtist" : "ENSTRÜMANTAL",
                "songComposerAuthor" : "ENSTRÜMANTAL",
                "songArranger" : "Fatih IHLAMUR",
            },
            {
                "songName" : "Hikmet Yazar Enstrümantal",
                "songArtist" : "ENSTRÜMANTAL",
                "songComposerAuthor" : "ENSTRÜMANTAL",
                "songArranger" : "Fatih IHLAMUR",
            },
            {
                "songName" : "Tesettür Enstrümantal",
                "songArtist" : "ENSTRÜMANTAL",
                "songComposerAuthor" : "ENSTRÜMANTAL",
                "songArranger" : "Fatih IHLAMUR",
            },
            {
                "songName" : "Şemail Enstrümantal",
                "songArtist" : "ENSTRÜMANTAL",
                "songComposerAuthor" : "ENSTRÜMANTAL",
                "songArranger" : "Fatih IHLAMUR",
            },
            {
                "songName" : "Gülberenk Enstrümantal",
                "songArtist" : "ENSTRÜMANTAL",
                "songComposerAuthor" : "ENSTRÜMANTAL",
                "songArranger" : "Fatih IHLAMUR",
            },
        ]
    },
    {
        "albumName" : "Marşlar - 1",
        "albumImage" : "marslar_1",
        "actionId" : 50,
        "musicItems" : [
            {
                "songName" : "Nâçar Olup Sızlanma",
                "songArtist" : "H.Aykut KUŞKAYA",
                "songComposerAuthor" : "Neslihan Nur TÜRK",
                "songArranger" : "Fatih IHLAMUR",
            },
            {
                "songName" : "Nâçar Olup Sızlanma 2",
                "songArtist" : "H.Aykut KUŞKAYA",
                "songComposerAuthor" : "Neslihan Nur TÜRK",
                "songArranger" : "Fatih IHLAMUR",
            },
            {
                "songName" : "Hizmet Marşı",
                "songArtist" : "Eşref Ziya TERZİ",
                "songComposerAuthor" : "Neslihan Nur TÜRK",
                "songArranger" : "Fatih IHLAMUR",
            },
            {
                "songName" : "Vatan Marşı",
                "songArtist" : "Murat POLAT",
                "songComposerAuthor" : "Neslihan Nur TÜRK",
                "songArranger" : "Fatih IHLAMUR",
            },
            {
                "songName" : "Birlik Marşı",
                "songArtist" : "RECEP DEMİRKAYNAK",
                "songComposerAuthor" : "Neslihan Nur TÜRK",
                "songArranger" : "Fatih IHLAMUR",
            },
            {
                "songName" : "Teslimiyyet Marşı",
                "songArtist" : "Turgut ÇELİK",
                "songComposerAuthor" : "Neslihan Nur TÜRK",
                "songArranger" : "Fatih IHLAMUR",
            },
            {
                "songName" : "Örnek İnsan Marşı",
                "songArtist" : "Yusuf GONCAGÜL",
                "songComposerAuthor" : "Neslihan Nur TÜRK",
                "songArranger" : "Fatih IHLAMUR",
            },
            {
                "songName" : "Sen'siz Olmaz",
                "songArtist" : "Mesut ÇAKARLI",
                "songComposerAuthor" : "Neslihan Nur TÜRK",
                "songArranger" : "Fatih IHLAMUR",
            },
            {
                "songName" : "Nâçar Olup Sızlanma Enstrümantal",
                "songArtist" : "ENSTRÜMANTAL",
                "songComposerAuthor" : "ENSTRÜMANTAL",
                "songArranger" : "Fatih IHLAMUR",
            },
            {
                "songName" : "Nâçar Olup Sızlanma 2 Enstrümantal",
                "songArtist" : "ENSTRÜMANTAL",
                "songComposerAuthor" : "ENSTRÜMANTAL",
                "songArranger" : "Fatih IHLAMUR",
            },
            {
                "songName" : "Hizmet Marşı Enstrümantal",
                "songArtist" : "ENSTRÜMANTAL",
                "songComposerAuthor" : "ENSTRÜMANTAL",
                "songArranger" : "Fatih IHLAMUR",
            },
            {
                "songName" : "Vatan Marşı Enstrümantal",
                "songArtist" : "ENSTRÜMANTAL",
                "songComposerAuthor" : "ENSTRÜMANTAL",
                "songArranger" : "Fatih IHLAMUR",
            },
            {
                "songName" : "Birlik Marşı Enstrümantal",
                "songArtist" : "ENSTRÜMANTAL",
                "songComposerAuthor" : "ENSTRÜMANTAL",
                "songArranger" : "Fatih IHLAMUR",
            },
            {
                "songName" : "Teslimiyyet Marşı Enstrümantal",
                "songArtist" : "ENSTRÜMANTAL",
                "songComposerAuthor" : "ENSTRÜMANTAL",
                "songArranger" : "Fatih IHLAMUR",
            },
            {
                "songName" : "Örnek İnsan Marşı Enstrümantal",
                "songArtist" : "ENSTRÜMANTAL",
                "songComposerAuthor" : "ENSTRÜMANTAL",
                "songArranger" : "Fatih IHLAMUR",
            },
            {
                "songName" : "Sen'siz Olmaz Enstrümantal",
                "songArtist" : "ENSTRÜMANTAL",
                "songComposerAuthor" : "ENSTRÜMANTAL",
                "songArranger" : "Fatih IHLAMUR",
            },
        ]
    },
    {
        "albumName" : "Marşlar - 2",
        "albumImage" : "marslar_2",
        "actionId" : 60,
        "musicItems" : [
            {
                "songName" : "Uçurtma Marşı",
                "songArtist" : "Rabia KIMIRTI",
                "songComposerAuthor" : "Neslihan Nur TÜRK",
                "songArranger" : "Fatih IHLAMUR",
            },
            {
                "songName" : "Vakit Marşı",
                "songArtist" : "Koro",
                "songComposerAuthor" : "Neslihan Nur TÜRK",
                "songArranger" : "Fatih IHLAMUR",
            },
            {
                "songName" : "Sorumluluk Marşı",
                "songArtist" : "Rabia KIMIRTI",
                "songComposerAuthor" : "Neslihan Nur TÜRK",
                "songArranger" : "Fatih IHLAMUR",
            },
            {
                "songName" : "Sünnet Marşı",
                "songArtist" : "Koro",
                "songComposerAuthor" : "Neslihan Nur TÜRK",
                "songArranger" : "Fatih IHLAMUR",
            },
            {
                "songName" : "Alınganlık Marşı",
                "songArtist" : "Rabia KIMIRTI",
                "songComposerAuthor" : "Neslihan Nur TÜRK",
                "songArranger" : "Fatih IHLAMUR",
            },
            {
                "songName" : "İlerleyiş Marşı",
                "songArtist" : "Koro",
                "songComposerAuthor" : "Neslihan Nur TÜRK",
                "songArranger" : "Fatih IHLAMUR",
            },
            {
                "songName" : "Birr Marşı",
                "songArtist" : "ENSTRÜMANTAL",
                "songComposerAuthor" : "ENSTRÜMANTAL",
                "songArranger" : "Fatih IHLAMUR",
            },
            {
                "songName" : "Uçurtma Marşı Enstrümantal",
                "songArtist" : "ENSTRÜMANTAL",
                "songComposerAuthor" : "ENSTRÜMANTAL",
                "songArranger" : "Fatih IHLAMUR",
            },
            {
                "songName" : "Vakit Marşı Enstrümantal",
                "songArtist" : "ENSTRÜMANTAL",
                "songComposerAuthor" : "ENSTRÜMANTAL",
                "songArranger" : "Fatih IHLAMUR",
            },
            {
                "songName" : "Sorumluluk Marşı Enstrümantal",
                "songArtist" : "ENSTRÜMANTAL",
                "songComposerAuthor" : "ENSTRÜMANTAL",
                "songArranger" : "Fatih IHLAMUR",
            },
            {
                "songName" : "Sünnet Marşı Enstrümantal",
                "songArtist" : "ENSTRÜMANTAL",
                "songComposerAuthor" : "ENSTRÜMANTAL",
                "songArranger" : "Fatih IHLAMUR",
            },
            {
                "songName" : "Alınganlık Marşı Enstrümantal",
                "songArtist" : "ENSTRÜMANTAL",
                "songComposerAuthor" : "ENSTRÜMANTAL",
                "songArranger" : "Fatih IHLAMUR",
            },
            {
                "songName" : "İlerleyiş Marşı Enstrümantal",
                "songArtist" : "ENSTRÜMANTAL",
                "songComposerAuthor" : "ENSTRÜMANTAL",
                "songArranger" : "Fatih IHLAMUR",
            },
            {
                "songName" : "Birr Marşı Enstrümantal",
                "songArtist" : "ENSTRÜMANTAL",
                "songComposerAuthor" : "ENSTRÜMANTAL",
                "songArranger" : "Fatih IHLAMUR",
            },
        ]
    },
]
